{
    "objects": [
        {
            "id": 1,
            "name": "signature with very very very very very very very very long name"
        },
        {
            "id": 2,
            "name": "Signature 2"
        },
        {
            "id": 3,
            "name": "Signature 3"
        },
        {
            "id": 4,
            "name": "Signature 4"
        },
        {
            "id": 5,
            "name": "Signature 5"
        },
        {
            "id": 6,
            "name": "Signature 6"
        },
        {
            "id": 7,
            "name": "Signature 7"
        },
        {
            "id": 8,
            "name": "Signature 8 with very very very very very very very very long name"
        }
    ]
}